chi,res_oe,res_cpoe,time_oe,err_oe,time_cpoe,err_cpoe
10,1.6117067764342878,1.6117067764342898,86.27560157328844,1.3422814394001201,144.4083783775568,31.473411056830763
20,0.0712085850677938,0.07120858506779379,92.93680042028427,0.08547932024398006,109.15225092321634,0.2185807340248185
30,0.5333373828828853,0.5333373828828845,111.8359649553895,0.13266774246142632,109.06527321785688,0.07929240628963652
40,0.5630940292321709,0.5630940292321722,140.86941871792078,0.4538724317110296,109.66779105365276,0.4255271516191503
50,0.2356133440002424,0.23561334400024256,185.34488566219807,0.10173715662318998,108.85334257036448,0.07790015413232626
60,-0.9023475771649717,-0.9023475771649715,240.83970952779055,0.8556135980893087,109.41287968307734,0.1495595985838306
70,-0.47285824133613424,-0.4728582413361345,326.33961979299784,0.18071133482046928,109.4559758901596,0.09244710038965154
80,0.3083325691249543,0.30833256912495405,421.3489532470703,0.8039559539029184,111.59527115523815,1.8349754505194795
90,0.9844086799475738,0.9844086799475749,548.6860554665327,0.24527372310599502,109.72330570220947,0.14677536076404774
100,0.1910967488283844,0.19109674882838495,694.3847918882966,1.2080242467135376,109.74435918033123,0.2455598954115207
110,0.5989155186597643,0.5989155186597654,885.3083869442344,0.32579992059323526,109.7754130139947,0.11430371709316607
120,0.4935846754767418,0.49358467547674156,1077.0359691232443,0.3469582765563554,110.22391263395548,0.3267339307307619
130,0.3752841674691031,0.37528416746910265,1352.3842938244343,8.172930346425385,110.20288616418839,0.203222507042858
140,-0.5826431629031601,-0.5826431629031605,1603.300255537033,0.5091549247196788,110.03831960260868,0.14741942056629628
150,-0.7103873600144793,-0.7103873600144796,2273.222851380706,2.0515203711466694,112.06955891102552,1.785593846722398
160,0.4417841892727411,0.44178418927274143,2446.3440598919988,1.4203644686219572,109.99982729554176,0.2849308478665317
170,-0.05246074597202734,-0.052460745972026865,3113.3967004716396,0.4857014078306805,110.01343950629234,0.1620357839930223
180,0.5973077690856347,0.5973077690856352,3607.2612565010786,0.5669582643735833,110.06943583488464,0.18316008947721818
190,-0.5345518256462266,-0.5345518256462269,4170.821867696941,1.4587664205773778,110.55662855505943,0.18739933305131043
200,0.30315319377520733,0.3031531937752069,4846.707628294826,2.4660010891218818,110.72325576096773,0.3791029862327339
210,0.5042084683203032,0.504208468320303,5588.978219777346,3.439941761532449,110.61392556875944,0.26014079662611866
220,-0.7352502606404723,-0.7352502606404732,6331.538289412856,3.3504808322218596,110.4879716411233,0.2290565527587044
230,-0.30448004382586213,-0.304480043825862,7178.091379255056,3.414666976259656,110.30538510531187,0.2378910109213292
240,-0.4567429181146108,-0.456742918114611,8013.187262415886,3.9440666088342184,110.35248972475529,0.21032122549938606
250,-0.24384797286772625,-0.24384797286772597,9055.721197836101,3.22561112581613,110.32697558403015,0.18667803069745761
260,-0.07094348401858688,-0.07094348401858737,10057.235167361796,4.397581199509124,126.80772691965103,3.810290221227939
270,-0.07479381585278305,-0.07479381585278314,11443.300192058086,4.445374008916999,129.51693423092365,4.450032423479631
280,0.14163526322165684,0.1416352632216564,12653.31927780062,5.569549431487164,135.44641993939877,4.969695087058692
290,-0.12904718035429477,-0.12904718035429444,13960.128718800843,6.0570760034013515,157.6242085546255,7.509143214469649
300,0.3130535008602619,0.313053500860262,15276.880097016692,7.7838558652022956,167.93573070317507,8.999183993673508
310,-0.7242080612260954,-0.7242080612260959,15510.002750530839,9.004780607480638,177.33770236372948,10.393186993485427
320,-0.31089100437944117,-0.31089100437944117,18265.03171417862,10.762089533703968,184.32824853807688,10.865495759636463
330,0.6136736700617565,0.6136736700617555,19943.552922271192,10.438119245919125,210.52937861531973,13.083832171933297
340,0.9938977586907707,0.9938977586907709,21583.471423760056,12.631399242669817,224.35853723436594,14.18144134052947
350,0.21869634840384466,0.21869634840384444,23082.584358379245,10.647267319571503,237.46563363820314,15.417165862341431
360,-0.9276617090126216,-0.9276617090126211,24885.837579146028,39.43818166848077,260.7731508091092,17.605246246494747
370,-0.09729485304059304,-0.09729485304059282,26995.217136479914,17.84850394758295,284.66684743762016,19.3734058679796
380,-1.0629605856895026,-1.0629605856895026,28852.578426152468,16.663548102415827,295.2574150636792,20.735462762743044
390,0.7117845605662468,0.7117845605662463,31252.373466826975,16.87642379209701,320.2128395438194,23.29996679187391
400,-0.8279835033226634,-0.8279835033226638,33331.97088725865,20.076599911787927,335.93741692602634,24.838137198372383
410,-0.5063395218766632,-0.5063395218766635,36320.53886242211,19.87652750324782,372.79907148331404,28.625929538462294
420,0.7048875531791972,0.7048875531791967,39239.57003764808,298.80615935108455,384.279259480536,29.209005902716054
430,-0.16758046705978777,-0.16758046705978785,43149.493110738695,50.350617091425725,403.50947715342045,31.26700123331952
440,-0.39920791085448115,-0.3992079108544817,45983.4585333243,45.797331163432766,422.4714554846287,32.96049002684751
450,0.832323216958434,0.8323232169584338,49372.805790416896,329.63825522585785,482.5613174587488,39.75394956893155
460,-0.20165153372577804,-0.20165153372577757,49466.34636912495,310.9472766211219,495.6481762230396,40.500671499707515
470,0.6637376930934675,0.6637376930934673,55243.17917376757,355.89105844126215,516.7548375204206,42.944814987329885
480,-0.22217889922858916,-0.22217889922858916,58453.72766144574,346.71949446923713,538.7428354471922,44.991377054206886
490,-0.23826545087898218,-0.23826545087898243,62750.57310219854,336.85863278327463,584.8572934046388,49.80121758860149
500,0.34910205906031105,0.3491020590603097,65790.20514637232,391.6086237814006,617.1203501522541,53.192076733953506
